456 
 磁碟區 D 中的磁碟是 TOSHIBA1T_1
 磁碟區序號:  14BA-61CB

 D:\林佑澄\實作課\GitLab\testcurl2 的目錄

2020/06/13  下午 03:36    <DIR>          .
2020/06/13  下午 03:36    <DIR>          ..
2020/06/13  下午 03:21                10 123.txt
2020/06/13  下午 03:36                 6 456.txt
2020/06/13  下午 03:36                 6 789.txt
2020/06/13  下午 03:19                32 README.md
               4 個檔案              54 位元組
               2 個目錄  334,107,766,784 位元組可用
